…
#### Species counts

``` r
vancouver_trees %>% count(common_name) %>% arrange(desc(n))
```

    ## # A tibble: 634 × 2
    ##    common_name                     n
    ##    <chr>                       <int>
    ##  1 KWANZAN FLOWERING CHERRY    10529
    ##  2 PISSARD PLUM                 8692
    ##  3 NORWAY MAPLE                 5614
    ##  4 CRIMEAN LINDEN               4427
    ##  5 PYRAMIDAL EUROPEAN HORNBEAM  3409
    ##  6 NIGHT PURPLE LEAF PLUM       3250
    ##  7 RED MAPLE                    2806
    ##  8 KOBUS MAGNOLIA               2688
    ##  9 BOWHALL RED MAPLE            2622
    ## 10 AKEBONO FLOWERING CHERRY     2384
    ## # ℹ 624 more rows
…
#### Years with highest “flow”

``` r
flow_sample %>% group_by(year) %>% summarize(max_flow = max(flow)) %>% arrange(desc(max_flow))
```

    ## # A tibble: 109 × 2
    ##     year max_flow
    ##    <dbl>    <dbl>
    ##  1  2013      466
    ##  2  1923      377
    ##  3  1918      345
    ##  4  2012      332
    ##  5  1974      317
    ##  6  1986      313
    ##  7  1933      311
    ##  8  1972      311
    ##  9  1916      309
    ## 10  2007      298
    ## # ℹ 99 more rows
…
