…
As I am interested in tree diversity, it makes sense to calculate how
many trees of each species occur in each neighborhood.

``` r
(species_counts <- vancouver_trees %>%
  group_by(neighbourhood_name, species_name) %>%
  summarize(count = n()) %>%
  mutate(proportion = count / sum(count)))
```

    ## `summarise()` has grouped output by 'neighbourhood_name'. You can override
    ## using the `.groups` argument.

    ## # A tibble: 3,056 × 4
    ## # Groups:   neighbourhood_name [22]
    ##    neighbourhood_name species_name   count proportion
    ##    <chr>              <chr>          <int>      <dbl>
    ##  1 ARBUTUS-RIDGE      ABIES              2   0.000387
    ##  2 ARBUTUS-RIDGE      ACERIFOLIA   X   103   0.0199  
    ##  3 ARBUTUS-RIDGE      ACUTISSIMA         5   0.000967
    ##  4 ARBUTUS-RIDGE      ALNIFOLIA         16   0.00310 
    ##  5 ARBUTUS-RIDGE      AMERICANA        225   0.0435  
    ##  6 ARBUTUS-RIDGE      AQUIFOLIUM         3   0.000580
    ##  7 ARBUTUS-RIDGE      ARIA              19   0.00368 
    ##  8 ARBUTUS-RIDGE      ARNOLDIANA X       4   0.000774
    ##  9 ARBUTUS-RIDGE      AUCUPARIA         16   0.00310 
    ## 10 ARBUTUS-RIDGE      AVIUM             15   0.00290 
    ## # ℹ 3,046 more rows
…
``` r
vancouver_trees <- vancouver_trees %>% mutate(neighbourhood_name = factor(neighbourhood_name))
(summary_stats <- vancouver_trees %>%
  group_by(neighbourhood_name) %>%
  summarise(
    mean = mean(diameter),
    median = median(diameter),
    sd = sd(diameter),
    min = min(diameter),
    max = max(diameter)
) %>% arrange(desc(mean)))
```

    ## # A tibble: 22 × 6
    ##    neighbourhood_name        mean median    sd   min   max
    ##    <fct>                    <dbl>  <dbl> <dbl> <dbl> <dbl>
    ##  1 KITSILANO                 14.4   12   10.8      0 317  
    ##  2 SHAUGHNESSY               14.3   12   11.3      0  99  
    ##  3 DUNBAR-SOUTHLANDS         13.9   12   11.0      0 305  
    ##  4 WEST POINT GREY           13.2   11    9.73     0  61.6
    ##  5 KERRISDALE                12.7   10    9.80     0 156  
    ##  6 WEST END                  12.1   10.5  8.26     1  55  
    ##  7 ARBUTUS-RIDGE             11.9   10    8.67     0  62  
    ##  8 RILEY PARK                11.8    9    9.28     0  99  
    ##  9 SOUTH CAMBIE              11.7    8    9.59     1 141  
    ## 10 KENSINGTON-CEDAR COTTAGE  11.7    9.5  8.93     0  99  
    ## # ℹ 12 more rows
…
Be sure to explain your reasoning for this task. Show us the “before”
and “after”.

#### Answer

I am untidying the data by using pivot\_wider() to convert the species
names to columns. Now, each rows contains multiple observations

``` r
(untidy_data <- species_counts %>%
  select(-count) %>%
  pivot_wider(names_from =  species_name, values_from = proportion))
```

    ## # A tibble: 22 × 284
    ## # Groups:   neighbourhood_name [22]
    ##    neighbourhood_name      ABIES `ACERIFOLIA   X` ACUTISSIMA ALNIFOLIA AMERICANA
    ##    <chr>                   <dbl>            <dbl>      <dbl>     <dbl>     <dbl>
    ##  1 ARBUTUS-RIDGE         3.87e-4          0.0199    0.000967  0.00310    0.0435 
    ##  2 DOWNTOWN              1.94e-4          0.0238    0.0130    0.000582   0.00969
    ##  3 DUNBAR-SOUTHLANDS     1.17e-3          0.0178    0.00244   0.00191    0.0462 
    ##  4 FAIRVIEW              1.75e-3          0.00475  NA         0.00150    0.0412 
    ##  5 GRANDVIEW-WOODLAND    5.97e-4          0.00940   0.00209   0.00104    0.0310 
    ##  6 HASTINGS-SUNRISE      3.79e-4          0.00664   0.00446   0.00616    0.0166 
    ##  7 KENSINGTON-CEDAR COT… 1.36e-3          0.00580   0.00734   0.00118    0.0677 
    ##  8 KERRISDALE            7.21e-4          0.00851   0.00115   0.000433   0.0490 
    ##  9 KILLARNEY             6.51e-4          0.00927   0.00130   0.000325   0.0335 
    ## 10 KITSILANO             2.09e-3          0.0174    0.00283   0.00197    0.0320 
    ## # ℹ 12 more rows
    ## # ℹ 278 more variables: AQUIFOLIUM <dbl>, ARIA <dbl>, `ARNOLDIANA X` <dbl>,
    ## #   AUCUPARIA <dbl>, AVIUM <dbl>, BABYLONICA <dbl>, BANKSIANA <dbl>,
    ## #   BETULUS <dbl>, BIGNONIOIDES <dbl>, BILOBA <dbl>, BLIREANA <dbl>,
    ## #   CALLERYANA <dbl>, CAMPESTRE <dbl>, CANADENSIS <dbl>, CAPPADOCICUM <dbl>,
    ## #   `CARNEA   X` <dbl>, CAROLINIANA <dbl>, CERASIFERA <dbl>, CINEREA <dbl>,
    ## #   CIRCINATUM <dbl>, COCCINEA <dbl>, CONTORTA <dbl>, CONTROVERSA <dbl>, …

The reverse can be done with pivot\_longer.

``` r
(tidy_data <- untidy_data %>%
  pivot_longer(cols = -neighbourhood_name, names_to = "species_name", values_to = "proportion"))
```

    ## # A tibble: 6,226 × 3
    ## # Groups:   neighbourhood_name [22]
    ##    neighbourhood_name species_name   proportion
    ##    <chr>              <chr>               <dbl>
    ##  1 ARBUTUS-RIDGE      ABIES            0.000387
    ##  2 ARBUTUS-RIDGE      ACERIFOLIA   X   0.0199  
    ##  3 ARBUTUS-RIDGE      ACUTISSIMA       0.000967
    ##  4 ARBUTUS-RIDGE      ALNIFOLIA        0.00310 
    ##  5 ARBUTUS-RIDGE      AMERICANA        0.0435  
    ##  6 ARBUTUS-RIDGE      AQUIFOLIUM       0.000580
    ##  7 ARBUTUS-RIDGE      ARIA             0.00368 
    ##  8 ARBUTUS-RIDGE      ARNOLDIANA X     0.000774
    ##  9 ARBUTUS-RIDGE      AUCUPARIA        0.00310 
    ## 10 ARBUTUS-RIDGE      AVIUM            0.00290 
    ## # ℹ 6,216 more rows
…
<!--------------------------- Start your work below --------------------------->

``` r
final_data <- species_counts %>%
  filter(count >= 50) %>%
  mutate(proportion = round(proportion, 3)) %>%
  select(-count) 

  distinct_neighbourhoods <- final_data %>%
    distinct(neighbourhood_name)
  
  distinct_neighbourhoods
```

    ## # A tibble: 22 × 1
    ## # Groups:   neighbourhood_name [22]
    ##    neighbourhood_name      
    ##    <chr>                   
    ##  1 ARBUTUS-RIDGE           
    ##  2 DOWNTOWN                
    ##  3 DUNBAR-SOUTHLANDS       
    ##  4 FAIRVIEW                
    ##  5 GRANDVIEW-WOODLAND      
    ##  6 HASTINGS-SUNRISE        
    ##  7 KENSINGTON-CEDAR COTTAGE
    ##  8 KERRISDALE              
    ##  9 KILLARNEY               
    ## 10 KITSILANO               
    ## # ℹ 12 more rows
…
