…
Species counts

vancouver_trees %>% count(common_name) %>% arrange(desc(n))

## # A tibble: 634 × 2
##    common_name                     n
##    <chr>                       <int>
##  1 KWANZAN FLOWERING CHERRY    10529
##  2 PISSARD PLUM                 8692
##  3 NORWAY MAPLE                 5614
##  4 CRIMEAN LINDEN               4427
##  5 PYRAMIDAL EUROPEAN HORNBEAM  3409
##  6 NIGHT PURPLE LEAF PLUM       3250
##  7 RED MAPLE                    2806
##  8 KOBUS MAGNOLIA               2688
##  9 BOWHALL RED MAPLE            2622
## 10 AKEBONO FLOWERING CHERRY     2384
## # ℹ 624 more rows
…
## Rows: 218
## Columns: 7
## $ station_id   <chr> "05BB001", "05BB001", "05BB001", "05BB001", "05BB001", "0…
## $ year         <dbl> 1909, 1910, 1911, 1912, 1913, 1914, 1915, 1916, 1917, 191…
## $ extreme_type <chr> "maximum", "maximum", "maximum", "maximum", "maximum", "m…
## $ month        <dbl> 7, 6, 6, 8, 6, 6, 6, 6, 6, 6, 6, 7, 6, 6, 6, 7, 5, 7, 6, …
## $ day          <dbl> 7, 12, 14, 25, 11, 18, 27, 20, 17, 15, 22, 3, 9, 5, 14, 5…
## $ flow         <dbl> 314, 230, 264, 174, 232, 214, 236, 309, 174, 345, 185, 24…
## $ sym          <chr> NA, NA, NA, NA, NA, NA, NA, NA, NA, NA, NA, NA, NA, NA, N…

Years with highest “flow”

flow_sample %>% group_by(year) %>% summarize(max_flow = max(flow)) %>% arrange(desc(max_flow))

## # A tibble: 109 × 2
##     year max_flow
##    <dbl>    <dbl>
##  1  2013      466
##  2  1923      377
##  3  1918      345
##  4  2012      332
##  5  1974      317
##  6  1986      313
##  7  1933      311
##  8  1972      311
##  9  1916      309
## 10  2007      298
## # ℹ 99 more rows
…
